Drone Sentiment Analysis
…
A word cloud of words used by people who voted (5), “Strongly Supporting” drone exports.

response

# A tibble: 2,006 × 2
   reason                                       opinion
   <chr>                                          <dbl>
 1 Ifisbd kz e zkx dnx                                3
 2 Because its a choice I pick the answer             2
 3 Im not sure                                        4
 4 I consider what they do with the technology.       4
 5 Nothing                                            4
 6 Jjhhu ask her not sure how I will not go           3
 7 The economy, the global impact                     5
 8 Safety of other country                            3
 9 Cant let them have too much information            4
10 How do                                             1
# ℹ 1,996 more rows
…
